<svg width="17" height="17" viewBox="0 0 17 17" fill="none" xmlns="http://www.w3.org/2000/svg">
<rect width="5" height="5" rx="1" fill="#202124" fill-opacity="0.6"/>
<rect x="6" width="5" height="5" rx="1" fill="#202124" fill-opacity="0.6"/>
<rect x="12" width="5" height="5" rx="1" fill="#202124" fill-opacity="0.6"/>
<rect y="6" width="5" height="5" rx="1" fill="#202124" fill-opacity="0.6"/>
<rect x="6" y="6" width="5" height="5" rx="1" fill="#202124" fill-opacity="0.6"/>
<rect x="12" y="6" width="5" height="5" rx="1" fill="#202124" fill-opacity="0.6"/>
<rect y="12" width="5" height="5" rx="1" fill="#202124" fill-opacity="0.6"/>
<rect x="6" y="12" width="5" height="5" rx="1" fill="#202124" fill-opacity="0.6"/>
<rect x="12" y="12" width="5" height="5" rx="1" fill="#202124" fill-opacity="0.6"/>
</svg>
